{
    "extensionDescription": {
        "message": "Extension minimale pour firefox intégrant Bookmarklet d'une instances Linkace (https://github.com/Kovah/LinkAce). Linkace est une archive de marques pages libre auto-hébergée, développée par Kovah. Cette extension a été développée et est maintenue par Sydney Gems et n'est nullement officiellement liée à Linkace.",
        "description": "Description of the extension."
    }
}
